verilog/test.vcd
$date
	Sat Sep 22 23:15:36 2018
$end
$version
	Icarus Verilog
$end
$timescale
	1s
$end
$scope module fulladder4bit_tb $end
$var wire 4 ! sum [3:0] $end
$var wire 1 " overflow $end
$var wire 1 # carryout $end
$var reg 4 $ a [3:0] $end
$var reg 4 % b [3:0] $end
$scope module add $end
$var wire 4 & a [3:0] $end
$var wire 4 ' b [3:0] $end
$var wire 1 " overflow $end
$var wire 4 ( sum [3:0] $end
$var wire 1 # carryout $end
$var wire 1 ) carry2 $end
$var wire 1 * carry1 $end
$var wire 1 + carry0 $end
$scope module add0 $end
$var wire 1 , a $end
$var wire 1 - b $end
$var wire 1 * carry $end
$var wire 1 . sum0 $end
$var wire 1 / sum $end
$var wire 1 0 carry1 $end
$var wire 1 1 carry0 $end
$var wire 1 + c $end
$scope module h0 $end
$var wire 1 , a $end
$var wire 1 - b $end
$var wire 1 1 carry $end
$var wire 1 . sum $end
$upscope $end
$scope module h1 $end
$var wire 1 . a $end
$var wire 1 0 carry $end
$var wire 1 / sum $end
$var wire 1 + b $end
$upscope $end
$upscope $end
$scope module add1 $end
$var wire 1 2 a $end
$var wire 1 3 b $end
$var wire 1 * c $end
$var wire 1 ) carry $end
$var wire 1 4 sum0 $end
$var wire 1 5 sum $end
$var wire 1 6 carry1 $end
$var wire 1 7 carry0 $end
$scope module h0 $end
$var wire 1 2 a $end
$var wire 1 3 b $end
$var wire 1 7 carry $end
$var wire 1 4 sum $end
$upscope $end
$scope module h1 $end
$var wire 1 4 a $end
$var wire 1 * b $end
$var wire 1 6 carry $end
$var wire 1 5 sum $end
$upscope $end
$upscope $end
$scope module add2 $end
$var wire 1 8 a $end
$var wire 1 9 b $end
$var wire 1 ) c $end
$var wire 1 # carry $end
$var wire 1 : sum0 $end
$var wire 1 ; sum $end
$var wire 1 < carry1 $end
$var wire 1 = carry0 $end
$scope module h0 $end
$var wire 1 8 a $end
$var wire 1 9 b $end
$var wire 1 = carry $end
$var wire 1 : sum $end
$upscope $end
$scope module h1 $end
$var wire 1 : a $end
$var wire 1 ) b $end
$var wire 1 < carry $end
$var wire 1 ; sum $end
$upscope $end
$upscope $end
$scope module half $end
$var wire 1 > a $end
$var wire 1 ? b $end
$var wire 1 + carry $end
$var wire 1 @ sum $end
$upscope $end
$upscope $end
$upscope $end
$enddefinitions $end
#0
$dumpvars
x@
1?
1>
x=
x<
x;
x:
09
08
x7
x6
x5
x4
03
12
x1
x0
x/
x.
1-
0,
x+
x*
x)
bx (
b11 '
b101 &
b11 %
b101 $
x#
x"
bx !
$end
#50
bx0 !
bx0 (
0@
1+
1.
01
14
07
0:
0=
#100
bx00 !
bx00 (
0/
10
0<
#150
1*
0#
#200
bx000 !
bx000 (
05
16
#250
1)
#300
b1000 !
b1000 (
1;
1"
#600
0?
13
19
02
18
b1110 %
b1110 '
b1001 $
b1001 &
#650
b1001 !
b1001 (
1@
0+
1=
#700
00
b1011 !
b1011 (
1/
1#
#750
0*
0"
#800
b1111 !
b1111 (
15
06
#850
0)
#900
b111 !
b111 (
0;
1"
#1200
1?
09
1,
b111 %
b111 '
b1011 $
b1011 &
#1250
b110 !
b110 (
0@
1+
1:
0=
0.
11
#1300
b1110 !
b1110 (
1;
0#
1*
#1350
0"
b1010 !
b1010 (
05
16
#1400
1)
#1450
b10 !
b10 (
0;
1<
1"
#1500
1#
#1550
0"
#1800
0?
0-
19
0,
12
08
b1100 %
b1100 '
b101 $
b101 &
#1850
b11 !
b11 (
1@
0+
01
04
17
#1900
0/
0*
b101 !
b101 (
15
06
#1950
b1 !
b1 (
05
#2400
1?
1-
09
1,
b111 %
b111 '
b111 $
b111 &
#2450
b0 !
b0 (
0@
1+
0:
11
#2500
1/
b1010 !
b1010 (
1;
0<
1*
#2550
0#
b1110 !
b1110 (
15
#2600
1"
#3600
0?
0-
03
0>
0,
02
18
b0 %
b0 '
b1000 $
b1000 &
#3650
0+
01
07
1:
#3700
0/
0*
0)
b100 !
b100 (
0;
1<
#3750
05
b1000 !
b1000 (
1;
0<
0"
1#
#3800
0#
1"
#3850
0"
#4200
1?
1-
13
19
1>
1,
12
b1111 %
b1111 '
b1111 $
b1111 &
#4250
0:
1=
1+
11
17
#4300
0;
1#
b10 !
b10 (
1/
1*
1)
#4350
15
b1110 !
b1110 (
1;
#4800
0?
0-
03
09
0>
0,
02
08
b0 %
b0 '
b0 $
b0 &
#4850
0+
01
07
0=
#4900
b1100 !
b1100 (
0/
0*
0)
0#
#4950
05
b0 !
b0 (
0;
#5400
1?
1-
13
b111 %
b111 '
#5450
b1 !
b1 (
1@
1.
14
#5500
1/
b111 !
b111 (
15
#6000
0-
19
1>
12
b1101 %
b1101 '
b101 $
b101 &
#6050
0.
1:
b110 !
b110 (
0@
1+
04
17
#6100
1;
b1010 !
b1010 (
05
1)
#6150
b10 !
b10 (
0;
1<
1"
#6200
1#
#6250
0"
#6600
0?
1-
03
b1010 %
b1010 '
#6650
b11 !
b11 (
1@
0+
1.
14
07
#6700
b111 !
b111 (
15
0)
#6750
b1111 !
b1111 (
1;
0<
1"
#6800
0#
#6850
0"
#7200
13
09
18
b110 %
b110 '
b1101 $
b1101 &
#7250
04
17
#7300
b1011 !
b1011 (
05
1)
#7350
b11 !
b11 (
0;
1<
1"
#7400
1#
#7450
0"
#7800
1?
0-
19
0>
1,
02
b1101 %
b1101 '
b1010 $
b1010 &
#7850
0:
1=
14
07
#7900
1;
0<
b1111 !
b1111 (
15
0)
#7950
b111 !
b111 (
0;
1"
#8400
1-
08
b1111 %
b1111 '
b10 $
b10 &
#8450
0.
11
1:
0=
#8500
0/
1*
b1101 !
b1101 (
1;
0#
#8550
b1001 !
b1001 (
05
16
0"
#8600
1)
#8650
b1 !
b1 (
0;
1<
1"
#8700
1#
#8750
0"
#9000
0?
03
09
1>
12
18
b10 %
b10 '
b1111 $
b1111 &
