verilog/test.vcd
$date
	Sun Sep 23 13:49:47 2018
$end
$version
	Icarus Verilog
$end
$timescale
	1s
$end
$scope module fulladder4bit_tb $end
$var wire 4 ! sum [3:0] $end
$var wire 1 " overflow $end
$var wire 1 # carryout $end
$var reg 4 $ a [3:0] $end
$var reg 4 % b [3:0] $end
$scope module add $end
$var wire 4 & a [3:0] $end
$var wire 4 ' b [3:0] $end
$var wire 1 " overflow $end
$var wire 4 ( sum [3:0] $end
$var wire 1 # carryout $end
$var wire 1 ) carry2 $end
$var wire 1 * carry1 $end
$var wire 1 + carry0 $end
$scope module add0 $end
$var wire 1 , a $end
$var wire 1 - b $end
$var wire 1 * carry $end
$var wire 1 . sum0 $end
$var wire 1 / sum $end
$var wire 1 0 carry1 $end
$var wire 1 1 carry0 $end
$var wire 1 + c $end
$scope module h0 $end
$var wire 1 , a $end
$var wire 1 - b $end
$var wire 1 1 carry $end
$var wire 1 . sum $end
$upscope $end
$scope module h1 $end
$var wire 1 . a $end
$var wire 1 0 carry $end
$var wire 1 / sum $end
$var wire 1 + b $end
$upscope $end
$upscope $end
$scope module add1 $end
$var wire 1 2 a $end
$var wire 1 3 b $end
$var wire 1 * c $end
$var wire 1 ) carry $end
$var wire 1 4 sum0 $end
$var wire 1 5 sum $end
$var wire 1 6 carry1 $end
$var wire 1 7 carry0 $end
$scope module h0 $end
$var wire 1 2 a $end
$var wire 1 3 b $end
$var wire 1 7 carry $end
$var wire 1 4 sum $end
$upscope $end
$scope module h1 $end
$var wire 1 4 a $end
$var wire 1 * b $end
$var wire 1 6 carry $end
$var wire 1 5 sum $end
$upscope $end
$upscope $end
$scope module add2 $end
$var wire 1 8 a $end
$var wire 1 9 b $end
$var wire 1 ) c $end
$var wire 1 # carry $end
$var wire 1 : sum0 $end
$var wire 1 ; sum $end
$var wire 1 < carry1 $end
$var wire 1 = carry0 $end
$scope module h0 $end
$var wire 1 8 a $end
$var wire 1 9 b $end
$var wire 1 = carry $end
$var wire 1 : sum $end
$upscope $end
$scope module h1 $end
$var wire 1 : a $end
$var wire 1 ) b $end
$var wire 1 < carry $end
$var wire 1 ; sum $end
$upscope $end
$upscope $end
$scope module half $end
$var wire 1 > a $end
$var wire 1 ? b $end
$var wire 1 + carry $end
$var wire 1 @ sum $end
$upscope $end
$upscope $end
$upscope $end
$enddefinitions $end
#0
$dumpvars
x@
1?
1>
x=
x<
x;
x:
19
18
x7
x6
x5
x4
13
12
x1
x0
x/
x.
1-
1,
x+
x*
x)
bx (
b1111 '
b1111 &
b1111 %
b1111 $
x#
x"
bx !
$end
#50
bx0 !
bx0 (
0@
1+
0.
11
04
17
0:
1=
#100
bx10 !
bx10 (
1/
00
1*
06
1)
0<
1#
#150
15
b1110 !
b1110 (
1;
0"
#600
03
09
0,
08
b11 %
b11 '
b101 $
b101 &
#650
14
07
1.
01
0=
#700
05
16
0)
b1000 !
b1000 (
0/
10
0*
0#
#750
1)
0;
1*
b100 !
b100 (
15
06
#800
1;
1"
b1000 !
b1000 (
05
16
0)
#850
1)
b0 !
b0 (
0;
0"
#900
b1000 !
b1000 (
1;
1"
#1200
0-
0>
b1 %
b1 '
b100 $
b100 &
#1250
0.
b1001 !
b1001 (
1@
0+
#1300
00
#1350
0*
#1400
b1101 !
b1101 (
15
06
#1450
0)
#1500
b101 !
b101 (
0;
0"
#1800
1-
13
19
1,
02
b1111 %
b1111 '
b10 $
b10 &
#1850
1:
11
#1900
b1101 !
b1101 (
1;
1*
#1950
b1001 !
b1001 (
05
16
#2000
1)
#2050
b1 !
b1 (
0;
1<
1"
#2100
1#
#2150
0"
#2400
0-
03
12
b1001 %
b1001 '
b110 $
b110 &
#2450
1.
01
#2500
b11 !
b11 (
1/
0*
#2550
b111 !
b111 (
15
06
#2600
0)
#2650
b1111 !
b1111 (
1;
0<
1"
#2700
0#
#2750
0"
#3000
1-
13
09
18
b111 %
b111 '
b1110 $
b1110 &
#3050
0.
11
04
17
#3100
0/
1*
b1001 !
b1001 (
05
1)
#3150
15
b101 !
b101 (
0;
1<
1"
#3200
1#
#3250
0"
#3600
0?
0-
03
1>
02
b0 %
b0 '
b1011 $
b1011 &
#3650
1.
01
07
#3700
b111 !
b111 (
1/
0*
0)
#3750
05
b1011 !
b1011 (
1;
0<
1"
#3800
0#
#3850
0"
#4200
1-
19
0>
0,
b1010 %
b1010 '
b1000 $
b1000 &
#4250
0:
1=
b1010 !
b1010 (
0@
#4300
b10 !
b10 (
0;
1#
#4350
1"
#4800
1?
0-
13
12
b1101 %
b1101 '
b1100 $
b1100 &
#4850
b11 !
b11 (
1@
0.
17
#4900
b1 !
b1 (
0/
1)
#4950
b1001 !
b1001 (
1;
0"
#5400
1-
09
1>
1,
08
b111 %
b111 '
b111 $
b111 &
#5450
b1000 !
b1000 (
0@
1+
11
0=
#5500
b1010 !
b1010 (
1/
1*
0#
#5550
b1110 !
b1110 (
15
1"
#6000
0?
0-
03
b0 %
b0 '
#6050
b1111 !
b1111 (
1@
0+
1.
01
14
07
#6100
0*
b1011 !
b1011 (
05
16
0)
#6150
15
06
1)
b111 !
b111 (
0;
0"
#6200
0)
b1111 !
b1111 (
1;
1"
#6250
b111 !
b111 (
0;
0"
#6600
19
b1000 %
b1000 '
#6650
1:
#6700
b1111 !
b1111 (
1;
#7200
0>
0,
02
b0 $
b0 &
#7250
b1110 !
b1110 (
0@
0.
04
#7300
0/
b1000 !
b1000 (
05
#7800
18
b1000 $
b1000 &
#7850
0:
1=
#7900
b0 !
b0 (
0;
1#
#7950
1"
#8400
1?
1-
13
08
b1111 %
b1111 '
b0 $
b0 &
#8450
b1 !
b1 (
1@
1.
14
1:
0=
#8500
1/
15
b1111 !
b1111 (
1;
0#
#8550
0"
#9000
0?
0-
03
09
1>
1,
12
18
b0 %
b0 '
b1111 $
b1111 &
